{
  "organization" : "hackerspace",
  "rules": {
    "nostupid": "Don't do anything that would force the group to create another rule",
    "nogoldenchair": "This organization is not an investment. This organization is not designed to become something you can profit of. Join only if you plan to bring something to it, not benefit from it without investing more than you will get from it.",
    "refactor": "If you find a cleaner way of doing something, do it now.",
    "fork": "Fork this organization as soon as you can't change it.",
    "kiss": "Keep it short and simple",
    "forgiveness1st": "Ask for forgiveness rather than for permission. If you think you should do something, do it."
  }
}
